{
"response": [
{
 "datetime": "1730637632",
 "filename": "CipherOS-6.0-ANTARES-cipher_mimir-20250616-0844-BETA-OFFICIAL-VANILLA.zip",
 "id": "ceb5138c6e36da2ce4247aa16a176e41",
 "romtype":"BETA",
 "size": 1231844261,
 "url": "https://fileload.minati.workers.dev/cipher/otatest.zip",
 "version": "C60.SB.U.35.RL02"
}
]
}
